{
  "PullGemstonesFromJunimoHuts": false,
  "AutomationInterval": 60,
  "Controls": {
    "ToggleOverlay": "U"
  },
  "ConnectorNames": [
    "Workbench",
    "Crystal Path",
    "Wood Path"
  ],
  "ModCompatibility": {
    "BetterJunimos": true,
    "WarnForMissingBridgeMod": true
  },
  "MachineOverrides": {
    "ShippingBin": {
      "Priority": 0,
      "Enabled": true
    },
    "MiniShippingBin": {
      "Priority": 0,
      "Enabled": true
    }
  }
}