{
  "IsEnableQuickStack": true,
  "QuickStackRange": 10,
  "IsQuickStackIntoBuildingsWithInventories": true,
  "IsQuickStackOverflowItems": true,
  "IsQuickStackTooltipDrawNearbyChests": true,
  "IsEnableFavoriteItems": true,
  "FavoriteItemsHighlightTextureChoice": 2,
  "FavoriteItemsKeyboardHotkey": "LeftAlt",
  "FavoriteItemsControllerHotkey": "LeftStick"
}